[
{"model": "users.userprofile", "pk": 1002, "fields": {"org": "illinois", "telephone": "+1(020)53590", "mod_date": "2019-03-24 21:40:50.007401", "user_id": "1002"}},
{"model": "users.userprofile", "pk": 1003, "fields": {"org": "illinois", "telephone": "+1(862)70236", "mod_date": "2019-03-24 21:40:50.009399", "user_id": "1003"}},
{"model": "users.userprofile", "pk": 1004, "fields": {"org": "illinois", "telephone": "+1(039)14862", "mod_date": "2019-03-24 21:40:50.010399", "user_id": "1004"}},
{"model": "users.userprofile", "pk": 1005, "fields": {"org": "illinois", "telephone": "+1(873)61318", "mod_date": "2019-03-24 21:40:50.040382", "user_id": "1005"}},
{"model": "users.userprofile", "pk": 1006, "fields": {"org": "illinois", "telephone": "+1(786)5474", "mod_date": "2019-03-24 21:40:50.048378", "user_id": "1006"}},
{"model": "users.userprofile", "pk": 1007, "fields": {"org": "illinois", "telephone": "+1(589)3671", "mod_date": "2019-03-24 21:40:50.055373", "user_id": "1007"}},
{"model": "users.userprofile", "pk": 1008, "fields": {"org": "illinois", "telephone": "+1(118)1789", "mod_date": "2019-03-24 21:40:50.224278", "user_id": "1008"}},
{"model": "users.userprofile", "pk": 1009, "fields": {"org": "illinois", "telephone": "+1(986)71643", "mod_date": "2019-03-24 21:40:50.225278", "user_id": "1009"}},
{"model": "users.userprofile", "pk": 1010, "fields": {"org": "illinois", "telephone": "+1(792)20432", "mod_date": "2019-03-24 21:40:50.226278", "user_id": "1010"}},
{"model": "users.userprofile", "pk": 1011, "fields": {"org": "illinois", "telephone": "+1(393)38855", "mod_date": "2019-03-24 21:40:50.228276", "user_id": "1011"}},
{"model": "users.userprofile", "pk": 1012, "fields": {"org": "illinois", "telephone": "+1(619)19639", "mod_date": "2019-03-24 21:40:50.230275", "user_id": "1012"}},
{"model": "users.userprofile", "pk": 1013, "fields": {"org": "illinois", "telephone": "+1(887)65452", "mod_date": "2019-03-24 21:40:50.245264", "user_id": "1013"}},
{"model": "users.userprofile", "pk": 1014, "fields": {"org": "illinois", "telephone": "+1(384)8345", "mod_date": "2019-03-24 21:40:50.247263", "user_id": "1014"}},
{"model": "users.userprofile", "pk": 1015, "fields": {"org": "illinois", "telephone": "+1(650)47994", "mod_date": "2019-03-24 21:40:50.250261", "user_id": "1015"}},
{"model": "users.userprofile", "pk": 1016, "fields": {"org": "illinois", "telephone": "+1(383)93231", "mod_date": "2019-03-24 21:40:50.251260", "user_id": "1016"}},
{"model": "users.userprofile", "pk": 1017, "fields": {"org": "illinois", "telephone": "+1(991)20334", "mod_date": "2019-03-24 21:40:50.253260", "user_id": "1017"}},
{"model": "users.userprofile", "pk": 1018, "fields": {"org": "illinois", "telephone": "+1(046)51127", "mod_date": "2019-03-24 21:40:50.258257", "user_id": "1018"}},
{"model": "users.userprofile", "pk": 1019, "fields": {"org": "illinois", "telephone": "+1(652)40908", "mod_date": "2019-03-24 21:40:50.259256", "user_id": "1019"}},
{"model": "users.userprofile", "pk": 1020, "fields": {"org": "illinois", "telephone": "+1(930)80112", "mod_date": "2019-03-24 21:40:50.261258", "user_id": "1020"}},
{"model": "users.userprofile", "pk": 1021, "fields": {"org": "illinois", "telephone": "+1(589)86924", "mod_date": "2019-03-24 21:40:50.309248", "user_id": "1021"}},
{"model": "users.userprofile", "pk": 1022, "fields": {"org": "illinois", "telephone": "+1(557)66933", "mod_date": "2019-03-24 21:40:50.310248", "user_id": "1022"}},
{"model": "users.userprofile", "pk": 1023, "fields": {"org": "illinois", "telephone": "+1(540)88900", "mod_date": "2019-03-24 21:40:50.327238", "user_id": "1023"}},
{"model": "users.userprofile", "pk": 1024, "fields": {"org": "illinois", "telephone": "+1(691)24944", "mod_date": "2019-03-24 21:40:50.355204", "user_id": "1024"}},
{"model": "users.userprofile", "pk": 1025, "fields": {"org": "illinois", "telephone": "+1(139)189", "mod_date": "2019-03-24 21:40:50.369214", "user_id": "1025"}},
{"model": "users.userprofile", "pk": 1026, "fields": {"org": "illinois", "telephone": "+1(853)24561", "mod_date": "2019-03-24 21:40:50.375210", "user_id": "1026"}},
{"model": "users.userprofile", "pk": 1027, "fields": {"org": "illinois", "telephone": "+1(369)21745", "mod_date": "2019-03-24 21:40:50.377209", "user_id": "1027"}},
{"model": "users.userprofile", "pk": 1028, "fields": {"org": "illinois", "telephone": "+1(221)71120", "mod_date": "2019-03-24 21:40:50.378209", "user_id": "1028"}},
{"model": "users.userprofile", "pk": 1029, "fields": {"org": "illinois", "telephone": "+1(906)91037", "mod_date": "2019-03-24 21:40:50.380208", "user_id": "1029"}},
{"model": "users.userprofile", "pk": 1030, "fields": {"org": "illinois", "telephone": "+1(664)61866", "mod_date": "2019-03-24 21:40:50.383206", "user_id": "1030"}},
{"model": "users.userprofile", "pk": 1031, "fields": {"org": "illinois", "telephone": "+1(633)14171", "mod_date": "2019-03-24 21:40:50.401177", "user_id": "1031"}},
{"model": "users.userprofile", "pk": 1032, "fields": {"org": "illinois", "telephone": "+1(249)26947", "mod_date": "2019-03-24 21:40:50.402177", "user_id": "1032"}},
{"model": "users.userprofile", "pk": 1033, "fields": {"org": "illinois", "telephone": "+1(643)486", "mod_date": "2019-03-24 21:40:50.408192", "user_id": "1033"}},
{"model": "users.userprofile", "pk": 1034, "fields": {"org": "illinois", "telephone": "+1(216)31738", "mod_date": "2019-03-24 21:40:50.409192", "user_id": "1034"}},
{"model": "users.userprofile", "pk": 1035, "fields": {"org": "illinois", "telephone": "+1(526)18999", "mod_date": "2019-03-24 21:40:50.494121", "user_id": "1035"}},
{"model": "users.userprofile", "pk": 1036, "fields": {"org": "illinois", "telephone": "+1(386)83316", "mod_date": "2019-03-24 21:40:50.499140", "user_id": "1036"}},
{"model": "users.userprofile", "pk": 1037, "fields": {"org": "illinois", "telephone": "+1(529)11858", "mod_date": "2019-03-24 21:40:50.500118", "user_id": "1037"}},
{"model": "users.userprofile", "pk": 1038, "fields": {"org": "illinois", "telephone": "+1(356)34799", "mod_date": "2019-03-24 21:40:50.582071", "user_id": "1038"}},
{"model": "users.userprofile", "pk": 1039, "fields": {"org": "illinois", "telephone": "+1(286)70839", "mod_date": "2019-03-24 21:40:50.583071", "user_id": "1039"}},
{"model": "users.userprofile", "pk": 1040, "fields": {"org": "illinois", "telephone": "+1(371)70355", "mod_date": "2019-03-24 21:40:50.686013", "user_id": "1040"}},
{"model": "users.userprofile", "pk": 1041, "fields": {"org": "illinois", "telephone": "+1(610)97558", "mod_date": "2019-03-24 21:40:50.737004", "user_id": "1041"}},
{"model": "users.userprofile", "pk": 1042, "fields": {"org": "illinois", "telephone": "+1(897)48342", "mod_date": "2019-03-24 21:40:50.759969", "user_id": "1042"}},
{"model": "users.userprofile", "pk": 1043, "fields": {"org": "illinois", "telephone": "+1(395)23822", "mod_date": "2019-03-24 21:40:50.760968", "user_id": "1043"}},
{"model": "users.userprofile", "pk": 1044, "fields": {"org": "illinois", "telephone": "+1(089)33223", "mod_date": "2019-03-24 21:40:50.761968", "user_id": "1044"}},
{"model": "users.userprofile", "pk": 1045, "fields": {"org": "illinois", "telephone": "+1(784)85455", "mod_date": "2019-03-24 21:40:50.768967", "user_id": "1045"}},
{"model": "users.userprofile", "pk": 1046, "fields": {"org": "illinois", "telephone": "+1(712)95179", "mod_date": "2019-03-24 21:40:50.886900", "user_id": "1046"}},
{"model": "users.userprofile", "pk": 1047, "fields": {"org": "illinois", "telephone": "+1(782)22748", "mod_date": "2019-03-24 21:40:50.887917", "user_id": "1047"}},
{"model": "users.userprofile", "pk": 1048, "fields": {"org": "illinois", "telephone": "+1(871)45153", "mod_date": "2019-03-24 21:40:50.916883", "user_id": "1048"}},
{"model": "users.userprofile", "pk": 1049, "fields": {"org": "illinois", "telephone": "+1(673)95957", "mod_date": "2019-03-24 21:40:50.957855", "user_id": "1049"}},
{"model": "users.userprofile", "pk": 1050, "fields": {"org": "illinois", "telephone": "+1(352)50864", "mod_date": "2019-03-24 21:40:50.958855", "user_id": "1050"}},
{"model": "users.userprofile", "pk": 1051, "fields": {"org": "illinois", "telephone": "+1(027)81343", "mod_date": "2019-03-24 21:40:50.962857", "user_id": "1051"}},
{"model": "users.userprofile", "pk": 1052, "fields": {"org": "illinois", "telephone": "+1(142)72119", "mod_date": "2019-03-24 21:40:50.964855", "user_id": "1052"}},
{"model": "users.userprofile", "pk": 1053, "fields": {"org": "illinois", "telephone": "+1(181)41670", "mod_date": "2019-03-24 21:40:50.966851", "user_id": "1053"}},
{"model": "users.userprofile", "pk": 1054, "fields": {"org": "illinois", "telephone": "+1(598)37883", "mod_date": "2019-03-24 21:40:50.980842", "user_id": "1054"}},
{"model": "users.userprofile", "pk": 1055, "fields": {"org": "illinois", "telephone": "+1(321)97009", "mod_date": "2019-03-24 21:40:51.010825", "user_id": "1055"}},
{"model": "users.userprofile", "pk": 1056, "fields": {"org": "illinois", "telephone": "+1(003)64199", "mod_date": "2019-03-24 21:40:51.015826", "user_id": "1056"}},
{"model": "users.userprofile", "pk": 1057, "fields": {"org": "illinois", "telephone": "+1(138)59538", "mod_date": "2019-03-24 21:40:51.121783", "user_id": "1057"}},
{"model": "users.userprofile", "pk": 1058, "fields": {"org": "illinois", "telephone": "+1(074)33802", "mod_date": "2019-03-24 21:40:51.125762", "user_id": "1058"}},
{"model": "users.userprofile", "pk": 1059, "fields": {"org": "illinois", "telephone": "+1(464)80258", "mod_date": "2019-03-24 21:40:51.128760", "user_id": "1059"}},
{"model": "users.userprofile", "pk": 1060, "fields": {"org": "illinois", "telephone": "+1(734)36587", "mod_date": "2019-03-24 21:40:51.131759", "user_id": "1060"}},
{"model": "users.userprofile", "pk": 1061, "fields": {"org": "illinois", "telephone": "+1(039)99454", "mod_date": "2019-03-24 21:40:51.151766", "user_id": "1061"}},
{"model": "users.userprofile", "pk": 1062, "fields": {"org": "illinois", "telephone": "+1(417)76155", "mod_date": "2019-03-24 21:40:51.226705", "user_id": "1062"}},
{"model": "users.userprofile", "pk": 1063, "fields": {"org": "illinois", "telephone": "+1(268)65043", "mod_date": "2019-03-24 21:40:51.226705", "user_id": "1063"}},
{"model": "users.userprofile", "pk": 1064, "fields": {"org": "illinois", "telephone": "+1(300)85464", "mod_date": "2019-03-24 21:40:51.228704", "user_id": "1064"}},
{"model": "users.userprofile", "pk": 1065, "fields": {"org": "illinois", "telephone": "+1(715)60039", "mod_date": "2019-03-24 21:40:51.228704", "user_id": "1065"}},
{"model": "users.userprofile", "pk": 1066, "fields": {"org": "illinois", "telephone": "+1(108)93495", "mod_date": "2019-03-24 21:40:51.236696", "user_id": "1066"}},
{"model": "users.userprofile", "pk": 1067, "fields": {"org": "illinois", "telephone": "+1(678)41719", "mod_date": "2019-03-24 21:40:51.237695", "user_id": "1067"}},
{"model": "users.userprofile", "pk": 1068, "fields": {"org": "illinois", "telephone": "+1(403)35161", "mod_date": "2019-03-24 21:40:51.267679", "user_id": "1068"}},
{"model": "users.userprofile", "pk": 1069, "fields": {"org": "illinois", "telephone": "+1(271)14603", "mod_date": "2019-03-24 21:40:51.285669", "user_id": "1069"}},
{"model": "users.userprofile", "pk": 1070, "fields": {"org": "illinois", "telephone": "+1(063)19959", "mod_date": "2019-03-24 21:40:51.299661", "user_id": "1070"}},
{"model": "users.userprofile", "pk": 1071, "fields": {"org": "illinois", "telephone": "+1(021)24932", "mod_date": "2019-03-24 21:40:51.299661", "user_id": "1071"}},
{"model": "users.userprofile", "pk": 1072, "fields": {"org": "illinois", "telephone": "+1(631)94682", "mod_date": "2019-03-24 21:40:51.300660", "user_id": "1072"}},
{"model": "users.userprofile", "pk": 1073, "fields": {"org": "illinois", "telephone": "+1(204)80774", "mod_date": "2019-03-24 21:40:51.302659", "user_id": "1073"}},
{"model": "users.userprofile", "pk": 1074, "fields": {"org": "illinois", "telephone": "+1(300)31028", "mod_date": "2019-03-24 21:40:51.326665", "user_id": "1074"}},
{"model": "users.userprofile", "pk": 1075, "fields": {"org": "illinois", "telephone": "+1(843)80929", "mod_date": "2019-03-24 21:40:51.327664", "user_id": "1075"}},
{"model": "users.userprofile", "pk": 1076, "fields": {"org": "illinois", "telephone": "+1(837)85540", "mod_date": "2019-03-24 21:40:51.332661", "user_id": "1076"}},
{"model": "users.userprofile", "pk": 1077, "fields": {"org": "illinois", "telephone": "+1(846)28542", "mod_date": "2019-03-24 21:40:51.404620", "user_id": "1077"}},
{"model": "users.userprofile", "pk": 1078, "fields": {"org": "illinois", "telephone": "+1(066)42104", "mod_date": "2019-03-24 21:40:51.405620", "user_id": "1078"}},
{"model": "users.userprofile", "pk": 1079, "fields": {"org": "illinois", "telephone": "+1(137)13433", "mod_date": "2019-03-24 21:40:51.406620", "user_id": "1079"}},
{"model": "users.userprofile", "pk": 1080, "fields": {"org": "illinois", "telephone": "+1(014)74090", "mod_date": "2019-03-24 21:40:51.407619", "user_id": "1080"}},
{"model": "users.userprofile", "pk": 1081, "fields": {"org": "illinois", "telephone": "+1(562)33483", "mod_date": "2019-03-24 21:40:51.407619", "user_id": "1081"}},
{"model": "users.userprofile", "pk": 1082, "fields": {"org": "illinois", "telephone": "+1(143)8440", "mod_date": "2019-03-24 21:40:51.421589", "user_id": "1082"}},
{"model": "users.userprofile", "pk": 1083, "fields": {"org": "illinois", "telephone": "+1(576)7481", "mod_date": "2019-03-24 21:40:51.422589", "user_id": "1083"}},
{"model": "users.userprofile", "pk": 1084, "fields": {"org": "illinois", "telephone": "+1(318)64478", "mod_date": "2019-03-24 21:40:51.438601", "user_id": "1084"}},
{"model": "users.userprofile", "pk": 1085, "fields": {"org": "illinois", "telephone": "+1(822)78941", "mod_date": "2019-03-24 21:40:51.439600", "user_id": "1085"}},
{"model": "users.userprofile", "pk": 1086, "fields": {"org": "illinois", "telephone": "+1(141)67026", "mod_date": "2019-03-24 21:40:51.452592", "user_id": "1086"}},
{"model": "users.userprofile", "pk": 1087, "fields": {"org": "illinois", "telephone": "+1(775)40972", "mod_date": "2019-03-24 21:40:51.453592", "user_id": "1087"}},
{"model": "users.userprofile", "pk": 1088, "fields": {"org": "illinois", "telephone": "+1(750)45000", "mod_date": "2019-03-24 21:40:51.518535", "user_id": "1088"}},
{"model": "users.userprofile", "pk": 1089, "fields": {"org": "illinois", "telephone": "+1(116)84516", "mod_date": "2019-03-24 21:40:51.519534", "user_id": "1089"}},
{"model": "users.userprofile", "pk": 1090, "fields": {"org": "illinois", "telephone": "+1(736)21889", "mod_date": "2019-03-24 21:40:51.525531", "user_id": "1090"}},
{"model": "users.userprofile", "pk": 1091, "fields": {"org": "illinois", "telephone": "+1(458)88037", "mod_date": "2019-03-24 21:40:51.526530", "user_id": "1091"}},
{"model": "users.userprofile", "pk": 1092, "fields": {"org": "illinois", "telephone": "+1(876)18923", "mod_date": "2019-03-24 21:40:51.528528", "user_id": "1092"}},
{"model": "users.userprofile", "pk": 1093, "fields": {"org": "illinois", "telephone": "+1(356)86174", "mod_date": "2019-03-24 21:40:51.531527", "user_id": "1093"}},
{"model": "users.userprofile", "pk": 1094, "fields": {"org": "illinois", "telephone": "+1(895)56116", "mod_date": "2019-03-24 21:40:51.533526", "user_id": "1094"}},
{"model": "users.userprofile", "pk": 1095, "fields": {"org": "illinois", "telephone": "+1(872)72008", "mod_date": "2019-03-24 21:40:51.584496", "user_id": "1095"}},
{"model": "users.userprofile", "pk": 1096, "fields": {"org": "illinois", "telephone": "+1(378)70725", "mod_date": "2019-03-24 21:40:51.596489", "user_id": "1096"}},
{"model": "users.userprofile", "pk": 1097, "fields": {"org": "illinois", "telephone": "+1(381)64568", "mod_date": "2019-03-24 21:40:51.651460", "user_id": "1097"}},
{"model": "users.userprofile", "pk": 1098, "fields": {"org": "illinois", "telephone": "+1(666)2727", "mod_date": "2019-03-24 21:40:51.652462", "user_id": "1098"}},
{"model": "users.userprofile", "pk": 1099, "fields": {"org": "illinois", "telephone": "+1(578)42506", "mod_date": "2019-03-24 21:40:51.652462", "user_id": "1099"}}]